{
  "project_info": {
    "project_number": "138005400995",
    "firebase_url": "https://shfast-42c5f.firebaseio.com",
    "project_id": "shfast-42c5f",
    "storage_bucket": "shfast-42c5f.appspot.com"
  },
  "client": [
    {
      "client_info": {
        "mobilesdk_app_id": "1:138005400995:android:e89120c99bb6fff9f5de16",
        "android_client_info": {
          "package_name": "com.bcaf.shfast"
        }
      },
      "oauth_client": [
        {
          "client_id": "138005400995-iden68lr470ddqjl2kaq7givedn4vugl.apps.googleusercontent.com",
          "client_type": 3
        }
      ],
      "api_key": [
        {
          "current_key": "AIzaSyDnV1dZDHyD2eD9R8pMweJeYEFn_e7naUI"
        }
      ],
      "services": {
        "appinvite_service": {
          "other_platform_oauth_client": [
            {
              "client_id": "138005400995-iden68lr470ddqjl2kaq7givedn4vugl.apps.googleusercontent.com",
              "client_type": 3
            }
          ]
        }
      }
    }
  ],
  "configuration_version": "1"
}